%YAML 1.1
%TAG !u! tag:unity3d.com,2011:
--- !u!114 &11400000
MonoBehaviour:
  m_CorrespondingSourceObject: {fileID: 0}
  m_PrefabInstance: {fileID: 0}
  m_PrefabAsset: {fileID: 0}
  m_GameObject: {fileID: 0}
  m_Enabled: 1
  m_EditorHideFlags: 0
  m_Script: {fileID: 806784486, guid: f70555f144d8491a825f0804e09c671c, type: 3}
  m_Name: PackageStatusBar
  m_EditorClassIdentifier:
  m_Usings: []
  inlineSheet: {fileID: 11400000, guid: 7e5cfc9cc3d6d4a46bb6b7b47abfe1ec, type: 2}
  m_VisualElementAssets:
  - m_Name:
    m_Id: 308461056
    m_ParentId: 0
    m_RuleIndex: -1
    m_Text:
    m_PickingMode: 0
    m_FullTypeName: UnityEngine.Experimental.UIElements.VisualElement
    m_Classes: []
    m_Stylesheets: []
    m_Properties:
    - name
    - statusBarContainer
    - text
    -
    - picking-mode
    - Position
  - m_Name:
    m_Id: 1328600832
    m_ParentId: 308461056
    m_RuleIndex: -1
    m_Text:
    m_PickingMode: 0
    m_FullTypeName: UnityEngine.Experimental.UIElements.VisualElement
    m_Classes: []
    m_Stylesheets: []
    m_Properties:
    - name
    - loadingContainer
    - text
    -
    - picking-mode
    - Position
  - m_Name:
    m_Id: 1542010368
    m_ParentId: 1328600832
    m_RuleIndex: -1
    m_Text:
    m_PickingMode: 0
    m_FullTypeName: UnityEngine.Experimental.UIElements.VisualElement
    m_Classes:
    - loading
    m_Stylesheets: []
    m_Properties:
    - name
    - loadingSpinnerContainer
    - text
    -
    - picking-mode
    - Position
  - m_Name:
    m_Id: -1463162624
    m_ParentId: 1542010368
    m_RuleIndex: -1
    m_Text:
    m_PickingMode: 0
    m_FullTypeName: UnityEditor.PackageManager.UI.LoadingSpinner
    m_Classes:
    - spinner
    m_Stylesheets: []
    m_Properties:
    - name
    - packageSpinner
    - text
    -
    - picking-mode
    - Position
  - m_Name:
    m_Id: -422585344
    m_ParentId: 1328600832
    m_RuleIndex: -1
    m_Text:
    m_PickingMode: 0
    m_FullTypeName: UnityEngine.Experimental.UIElements.Label
    m_Classes: []
    m_Stylesheets: []
    m_Properties:
    - name
    - loadingIcon
    - text
    -
    - picking-mode
    - Position
  - m_Name:
    m_Id: 1277227264
    m_ParentId: 1328600832
    m_RuleIndex: -1
    m_Text:
    m_PickingMode: 0
    m_FullTypeName: UnityEngine.Experimental.UIElements.Label
    m_Classes: []
    m_Stylesheets: []
    m_Properties:
    - name
    - loadingText
    - text
    -
    - picking-mode
    - Position
  - m_Name:
    m_Id: 252784640
    m_ParentId: 308461056
    m_RuleIndex: -1
    m_Text:
    m_PickingMode: 0
    m_FullTypeName: UnityEngine.Experimental.UIElements.Button
    m_Classes: []
    m_Stylesheets: []
    m_Properties:
    - name
    - moreAddOptionsButton
    - text
    - +
    - picking-mode
    - Position
  - m_Name:
    m_Id: -2056832768
    m_ParentId: 0
    m_RuleIndex: -1
    m_Text:
    m_PickingMode: 0
    m_FullTypeName: UnityEditor.PackageManager.UI.PackageAddFromUrlField
    m_Classes: []
    m_Stylesheets: []
    m_Properties:
    - name
    - packageAddFromUrlField
    - text
    -
    - picking-mode
    - Position
  m_TemplateAssets: []
  m_Slots: []
  m_ContentContainerId: 0
