%YAML 1.1
%TAG !u! tag:unity3d.com,2011:
--- !u!114 &11400000
MonoBehaviour:
  m_CorrespondingSourceObject: {fileID: 0}
  m_PrefabInstance: {fileID: 0}
  m_PrefabAsset: {fileID: 0}
  m_GameObject: {fileID: 0}
  m_Enabled: 1
  m_EditorHideFlags: 0
  m_Script: {fileID: 806784486, guid: f70555f144d8491a825f0804e09c671c, type: 3}
  m_Name: PackageAddFromUrlField
  m_EditorClassIdentifier:
  m_Usings: []
  inlineSheet: {fileID: 11400000, guid: 4334db06ccd07ab42bade9c77b795dfe, type: 2}
  m_VisualElementAssets:
  - m_Name:
    m_Id: -516151808
    m_ParentId: 0
    m_RuleIndex: -1
    m_Text:
    m_PickingMode: 0
    m_FullTypeName: UnityEngine.Experimental.UIElements.VisualElement
    m_Classes: []
    m_Stylesheets: []
    m_Properties:
    - name
    - addFromUrlFieldContainer
    - focus-index
    - 0
    - text
    -
    - picking-mode
    - Position
  - m_Name:
    m_Id: -122200320
    m_ParentId: -516151808
    m_RuleIndex: -1
    m_Text:
    m_PickingMode: 0
    m_FullTypeName: UnityEngine.Experimental.UIElements.TextField
    m_Classes: []
    m_Stylesheets: []
    m_Properties:
    - name
    - urlTextField
    - text
    -
    - picking-mode
    - Position
  - m_Name:
    m_Id: 1444563968
    m_ParentId: -516151808
    m_RuleIndex: -1
    m_Text:
    m_PickingMode: 0
    m_FullTypeName: UnityEngine.Experimental.UIElements.Button
    m_Classes: []
    m_Stylesheets: []
    m_Properties:
    - name
    - addFromUrlButton
    - text
    - Add
    - picking-mode
    - Position
  m_TemplateAssets: []
  m_Slots: []
  m_ContentContainerId: 0
