%YAML 1.1
%TAG !u! tag:unity3d.com,2011:
--- !u!114 &11400000
MonoBehaviour:
  m_ObjectHideFlags: 0
  m_CorrespondingSourceObject: {fileID: 0}
  m_PrefabInstance: {fileID: 0}
  m_PrefabAsset: {fileID: 0}
  m_GameObject: {fileID: 0}
  m_Enabled: 1
  m_EditorHideFlags: 0
  m_Script: {fileID: 616380264, guid: f70555f144d8491a825f0804e09c671c, type: 3}
  m_Name: packagesearchtoolbar_0
  m_EditorClassIdentifier: 
  m_Rules: []
  m_ComplexSelectors: []
  floats: []
  colors: []
  strings: []
  assets: []
