%YAML 1.1
%TAG !u! tag:unity3d.com,2011:
--- !u!114 &11400000
MonoBehaviour:
  m_CorrespondingSourceObject: {fileID: 0}
  m_PrefabInstance: {fileID: 0}
  m_PrefabAsset: {fileID: 0}
  m_GameObject: {fileID: 0}
  m_Enabled: 1
  m_EditorHideFlags: 0
  m_Script: {fileID: 11500000, guid: 93bd78b11c692b741822aa7f0f9a285c, type: 3}
  m_Name: SpecialElite_AsciiC
  m_EditorClassIdentifier:
  hashCode: -221310307
  material: {fileID: 2100000, guid: aaf4d8f2ec7850e46aa20e386946fb2c, type: 2}
  materialHashCode: -1536168747
  fontAssetType: 1
  m_fontInfo:
    Name: Special Elite
    PointSize: 52
    Scale: 1
    CharacterCount: 97
    LineHeight: 52
    Baseline: 0
    Ascender: 36.5625
    CapHeight: 35.875
    Descender: -15.4375
    CenterLine: 0
    SuperscriptOffset: 36.5625
    SubscriptOffset: -3.376953
    SubSize: 0.5
    Underline: -3.376953
    UnderlineThickness: 0.5078125
    strikethrough: 7.681818
    strikethroughThickness: 0.5078125
    TabWidth: 152.5
    Padding: 10
    AtlasWidth: 512
    AtlasHeight: 512
  atlas: {fileID: 2800000, guid: 1ff2452e67949fd4b859f51ab94863d1, type: 3}
  m_glyphInfoList:
  - id: 32
    x: 11
    y: 522
    width: 15.25
    height: 52
    xOffset: 0
    yOffset: 36.5625
    xAdvance: 15.25
    scale: 1
  - id: 33
    x: 406
    y: 348
    width: 6.9375
    height: 36.4375
    xOffset: 3.75
    yOffset: 36.5
    xAdvance: 14.375
    scale: 1
  - id: 34
    x: 101
    y: 19
    width: 12.875
    height: 13.1875
    xOffset: 2.4375
    yOffset: 36.5625
    xAdvance: 18.3125
    scale: 1
  - id: 35
    x: 158
    y: 64
    width: 25.625
    height: 37.1875
    xOffset: 1.625
    yOffset: 37.0625
    xAdvance: 28.875
    scale: 1
  - id: 36
    x: 11
    y: 442
    width: 24.25
    height: 58.25
    xOffset: 1.625
    yOffset: 47.8125
    xAdvance: 27.375
    scale: 1
  - id: 37
    x: 11
    y: 366
    width: 31.625
    height: 54.9375
    xOffset: 1.625
    yOffset: 45.3125
    xAdvance: 34.6875
    scale: 1
  - id: 38
    x: 294
    y: 287
    width: 31.875
    height: 36.875
    xOffset: 1.625
    yOffset: 36.625
    xAdvance: 35.1875
    scale: 1
  - id: 39
    x: 232
    y: 249
    width: 4.9375
    height: 13.1875
    xOffset: 2.4375
    yOffset: 36.5625
    xAdvance: 10.1875
    scale: 1
  - id: 40
    x: 11
    y: 301
    width: 9.749999
    height: 43.0625
    xOffset: 2.8125
    yOffset: 39.375
    xAdvance: 14.5
    scale: 1
  - id: 41
    x: 11
    y: 173
    width: 9.937499
    height: 43
    xOffset: 1.9375
    yOffset: 40
    xAdvance: 14.625
    scale: 1
  - id: 42
    x: 452
    y: 69
    width: 23.9375
    height: 22.3125
    xOffset: 1.625
    yOffset: 36.75
    xAdvance: 27.1875
    scale: 1
  - id: 43
    x: 460
    y: 25
    width: 22.625
    height: 22.1875
    xOffset: 1.5
    yOffset: 29.125
    xAdvance: 25.8125
    scale: 1
  - id: 44
    x: 485
    y: 332
    width: 13
    height: 23.25
    xOffset: 2
    yOffset: 13.0625
    xAdvance: 17.5
    scale: 1
  - id: 45
    x: 92
    y: 240
    width: 26.4375
    height: 6.375
    xOffset: 3.25
    yOffset: 20.6875
    xAdvance: 33.0625
    scale: 1
  - id: 46
    x: 330
    y: 253
    width: 12.75
    height: 12.875
    xOffset: 2.6875
    yOffset: 12.75
    xAdvance: 18.1875
    scale: 1
  - id: 47
    x: 11
    y: 110
    width: 26.625
    height: 41.625
    xOffset: 1.1875
    yOffset: 39.5
    xAdvance: 29
    scale: 1
  - id: 48
    x: 158
    y: 123
    width: 26.25
    height: 37.375
    xOffset: 2.8125
    yOffset: 37.4375
    xAdvance: 31.75
    scale: 1
  - id: 49
    x: 158
    y: 343
    width: 28.3125
    height: 37.5625
    xOffset: 1.375
    yOffset: 37
    xAdvance: 29.625
    scale: 1
  - id: 50
    x: 349
    y: 78
    width: 25.5
    height: 36.5625
    xOffset: 2.5625
    yOffset: 35.375
    xAdvance: 29.8125
    scale: 1
  - id: 51
    x: 273
    y: 404
    width: 24.375
    height: 37.375
    xOffset: 2.3125
    yOffset: 36.125
    xAdvance: 29
    scale: 1
  - id: 52
    x: 253
    y: 132
    width: 29.5
    height: 36.5
    xOffset: 0.8124999
    yOffset: 36.8125
    xAdvance: 31.8125
    scale: 1
  - id: 53
    x: 374
    y: 21
    width: 23.75
    height: 35.875
    xOffset: 2.4375
    yOffset: 35.875
    xAdvance: 27.9375
    scale: 1
  - id: 54
    x: 205
    y: 64
    width: 26
    height: 37.1875
    xOffset: 2.5
    yOffset: 36.75
    xAdvance: 30.625
    scale: 1
  - id: 55
    x: 97
    y: 461
    width: 27.6875
    height: 39.875
    xOffset: 0.8124999
    yOffset: 38.1875
    xAdvance: 28.875
    scale: 1
  - id: 56
    x: 206
    y: 124
    width: 25.9375
    height: 37.3125
    xOffset: 2.6875
    yOffset: 37.4375
    xAdvance: 31.125
    scale: 1
  - id: 57
    x: 252
    y: 65
    width: 25.5
    height: 37.3125
    xOffset: 2.5
    yOffset: 37.1875
    xAdvance: 30.375
    scale: 1
  - id: 58
    x: 485
    y: 377
    width: 12.75
    height: 27.125
    xOffset: 2.6875
    yOffset: 27
    xAdvance: 17.875
    scale: 1
  - id: 59
    x: 241
    y: 190
    width: 13.0625
    height: 37.1875
    xOffset: 2.375
    yOffset: 27
    xAdvance: 17.0625
    scale: 1
  - id: 60
    x: 443
    y: 305
    width: 19.25
    height: 23.125
    xOffset: 1.625
    yOffset: 29.4375
    xAdvance: 24.125
    scale: 1
  - id: 61
    x: 53
    y: 12
    width: 26.4375
    height: 16.9375
    xOffset: 3.25
    yOffset: 26.6875
    xAdvance: 33.125
    scale: 1
  - id: 62
    x: 419
    y: 24
    width: 19.25
    height: 23.125
    xOffset: 3.25
    yOffset: 29.4375
    xAdvance: 24.125
    scale: 1
  - id: 63
    x: 296
    y: 463
    width: 21.125
    height: 37.75
    xOffset: 1.75
    yOffset: 37.9375
    xAdvance: 24.4375
    scale: 1
  - id: 64
    x: 434
    y: 350
    width: 29.6875
    height: 35.5625
    xOffset: 2.375
    yOffset: 35.375
    xAdvance: 34.5625
    scale: 1
  - id: 65
    x: 174
    y: 404
    width: 28.625
    height: 37.375
    xOffset: -0.0625
    yOffset: 36.5625
    xAdvance: 28.5625
    scale: 1
  - id: 66
    x: 327
    y: 194
    width: 27.4375
    height: 36.875
    xOffset: 1.5
    yOffset: 36.5625
    xAdvance: 31.4375
    scale: 1
  - id: 67
    x: 247
    y: 286
    width: 25.125
    height: 37.0625
    xOffset: 2.375
    yOffset: 36.375
    xAdvance: 30.125
    scale: 1
  - id: 68
    x: 197
    y: 463
    width: 28.1875
    height: 37.875
    xOffset: 1.875
    yOffset: 37.0625
    xAdvance: 32.375
    scale: 1
  - id: 69
    x: 299
    y: 74
    width: 28.5
    height: 36.6875
    xOffset: 1.9375
    yOffset: 35.9375
    xAdvance: 33.1875
    scale: 1
  - id: 70
    x: 146
    y: 463
    width: 29.4375
    height: 37.25
    xOffset: 1.5
    yOffset: 36.875
    xAdvance: 31.5
    scale: 1
  - id: 71
    x: 108
    y: 122
    width: 28.125
    height: 37.0625
    xOffset: 2.375
    yOffset: 36.9375
    xAdvance: 32
    scale: 1
  - id: 72
    x: 305
    y: 346
    width: 30.25
    height: 36.875
    xOffset: 2.0625
    yOffset: 35.875
    xAdvance: 33.9375
    scale: 1
  - id: 73
    x: 64
    y: 54
    width: 23
    height: 38.125
    xOffset: 1.3125
    yOffset: 36.9375
    xAdvance: 25.75
    scale: 1
  - id: 74
    x: 347
    y: 288
    width: 27.125
    height: 36.625
    xOffset: 0.8124999
    yOffset: 36.5625
    xAdvance: 28.125
    scale: 1
  - id: 75
    x: 143
    y: 182
    width: 28.875
    height: 37.1875
    xOffset: 1.4375
    yOffset: 37
    xAdvance: 30.3125
    scale: 1
  - id: 76
    x: 108
    y: 63
    width: 29
    height: 38
    xOffset: 1.1875
    yOffset: 37.3125
    xAdvance: 31.3125
    scale: 1
  - id: 77
    x: 90
    y: 181
    width: 31.625
    height: 37.0625
    xOffset: 2.4375
    yOffset: 36.5625
    xAdvance: 36.3125
    scale: 1
  - id: 78
    x: 197
    y: 284
    width: 28.75
    height: 37.125
    xOffset: 2.125
    yOffset: 36.4375
    xAdvance: 32.625
    scale: 1
  - id: 79
    x: 59
    y: 114
    width: 27.5625
    height: 38.0625
    xOffset: 2.1875
    yOffset: 36.5
    xAdvance: 32.0625
    scale: 1
  - id: 80
    x: 354
    y: 136
    width: 25.8125
    height: 36.4375
    xOffset: 1.5625
    yOffset: 35.875
    xAdvance: 28.75
    scale: 1
  - id: 81
    x: 11
    y: 237
    width: 27.5
    height: 42.0625
    xOffset: 2.1875
    yOffset: 37
    xAdvance: 31.3125
    scale: 1
  - id: 82
    x: 92
    y: 268
    width: 31.6875
    height: 37.125
    xOffset: 0.7499999
    yOffset: 36.75
    xAdvance: 33.125
    scale: 1
  - id: 83
    x: 396
    y: 289
    width: 25.75
    height: 36.5
    xOffset: 2.6875
    yOffset: 35.875
    xAdvance: 30.625
    scale: 1
  - id: 84
    x: 357
    y: 347
    width: 28
    height: 36.625
    xOffset: 1.3125
    yOffset: 36.75
    xAdvance: 30.875
    scale: 1
  - id: 85
    x: 106
    y: 332
    width: 30.5
    height: 37.25
    xOffset: 1.25
    yOffset: 36.9375
    xAdvance: 32.3125
    scale: 1
  - id: 86
    x: 11
    y: 50
    width: 31.9375
    height: 38.4375
    xOffset: -0.0625
    yOffset: 37.75
    xAdvance: 31.8125
    scale: 1
  - id: 87
    x: 420
    y: 407
    width: 31.5
    height: 35.8125
    xOffset: 0.4375
    yOffset: 35.8125
    xAdvance: 33.4375
    scale: 1
  - id: 88
    x: 276
    y: 194
    width: 29.9375
    height: 36.25
    xOffset: 0.125
    yOffset: 36.25
    xAdvance: 30.25
    scale: 1
  - id: 89
    x: 145
    y: 273
    width: 30.3125
    height: 37.5
    xOffset: -1.0625
    yOffset: 37.375
    xAdvance: 29.1875
    scale: 1
  - id: 90
    x: 326
    y: 16
    width: 26.0625
    height: 36.875
    xOffset: 2.5625
    yOffset: 36.875
    xAdvance: 30.8125
    scale: 1
  - id: 91
    x: 42
    y: 302
    width: 10.9375
    height: 42.9375
    xOffset: 4.4375
    yOffset: 39.25
    xAdvance: 16.25
    scale: 1
  - id: 92
    x: 42
    y: 174
    width: 26.625
    height: 41.625
    xOffset: 1.0625
    yOffset: 39.5
    xAdvance: 29
    scale: 1
  - id: 93
    x: 64
    y: 389
    width: 10.9375
    height: 42.9375
    xOffset: 0.8124999
    yOffset: 39.25
    xAdvance: 16.25
    scale: 1
  - id: 94
    x: 11
    y: 11
    width: 20.8125
    height: 17.3125
    xOffset: 0
    yOffset: 36.375
    xAdvance: 20.8125
    scale: 1
  - id: 95
    x: 140
    y: 241
    width: 26
    height: 5.25
    xOffset: 6.625
    yOffset: -5.8125
    xAdvance: 35.4375
    scale: 1
  - id: 96
    x: 364
    y: 258
    width: 11.3125
    height: 8.999999
    xOffset: 0
    yOffset: 39
    xAdvance: 11.3125
    scale: 1
  - id: 97
    x: 473
    y: 474
    width: 27.125
    height: 26.375
    xOffset: 1.9375
    yOffset: 26.125
    xAdvance: 29.375
    scale: 1
  - id: 98
    x: 304
    y: 136
    width: 28.75
    height: 36.4375
    xOffset: -1.4375
    yOffset: 35.6875
    xAdvance: 29.375
    scale: 1
  - id: 99
    x: 454
    y: 113
    width: 24.1875
    height: 27
    xOffset: 2
    yOffset: 25.875
    xAdvance: 28.4375
    scale: 1
  - id: 100
    x: 208
    y: 345
    width: 28.875
    height: 37.1875
    xOffset: 2.0625
    yOffset: 35.875
    xAdvance: 31.375
    scale: 1
  - id: 101
    x: 237
    y: 15
    width: 24
    height: 27.0625
    xOffset: 2.0625
    yOffset: 25.9375
    xAdvance: 28.3125
    scale: 1
  - id: 102
    x: 224
    y: 404
    width: 27.875
    height: 37.9375
    xOffset: 0.9999999
    yOffset: 36.5
    xAdvance: 24.625
    scale: 1
  - id: 103
    x: 193
    y: 183
    width: 27
    height: 37.0625
    xOffset: 2.1875
    yOffset: 25.4375
    xAdvance: 30.3125
    scale: 1
  - id: 104
    x: 319
    y: 405
    width: 30.9375
    height: 37
    xOffset: 0.25
    yOffset: 35.5
    xAdvance: 32.0625
    scale: 1
  - id: 105
    x: 247
    y: 463
    width: 27.625
    height: 37.25
    xOffset: 1.875
    yOffset: 35.0625
    xAdvance: 29.5625
    scale: 1
  - id: 106
    x: 57
    y: 453
    width: 18.4375
    height: 47.75
    xOffset: -0.6249999
    yOffset: 35.5
    xAdvance: 21.625
    scale: 1
  - id: 107
    x: 339
    y: 464
    width: 30.5625
    height: 36.9375
    xOffset: 0.5624999
    yOffset: 35.5
    xAdvance: 32.25
    scale: 1
  - id: 108
    x: 371
    y: 406
    width: 27.6875
    height: 36.875
    xOffset: 0.25
    yOffset: 35.5
    xAdvance: 28.125
    scale: 1
  - id: 109
    x: 426
    y: 209
    width: 30.5
    height: 26.625
    xOffset: 2.4375
    yOffset: 25.4375
    xAdvance: 34.5
    scale: 1
  - id: 110
    x: 454
    y: 161
    width: 30.125
    height: 26.6875
    xOffset: 1.625
    yOffset: 25.5
    xAdvance: 32.875
    scale: 1
  - id: 111
    x: 189
    y: 15
    width: 26.1875
    height: 27.0625
    xOffset: 2.0625
    yOffset: 25.375
    xAdvance: 30.3125
    scale: 1
  - id: 112
    x: 376
    y: 201
    width: 28.3125
    height: 35.75
    xOffset: 0.125
    yOffset: 24.3125
    xAdvance: 30.5625
    scale: 1
  - id: 113
    x: 391
    y: 464
    width: 27.1875
    height: 36.125
    xOffset: 2.25
    yOffset: 25.1875
    xAdvance: 29.5
    scale: 1
  - id: 114
    x: 473
    y: 426
    width: 27.875
    height: 26.5
    xOffset: 1.4375
    yOffset: 25.75
    xAdvance: 30.125
    scale: 1
  - id: 115
    x: 282
    y: 16
    width: 22.5
    height: 27.3125
    xOffset: 2.5
    yOffset: 25.8125
    xAdvance: 27
    scale: 1
  - id: 116
    x: 258
    y: 345
    width: 25.3125
    height: 37.8125
    xOffset: 0
    yOffset: 36.0625
    xAdvance: 26.5625
    scale: 1
  - id: 117
    x: 452
    y: 257
    width: 32.125
    height: 26.75
    xOffset: 0.25
    yOffset: 25.375
    xAdvance: 33.1875
    scale: 1
  - id: 118
    x: 401
    y: 153
    width: 31.5
    height: 26.5625
    xOffset: 0.0625
    yOffset: 25.0625
    xAdvance: 31.4375
    scale: 1
  - id: 119
    x: 396
    y: 88
    width: 34.75
    height: 26.125
    xOffset: 0.25
    yOffset: 25.6875
    xAdvance: 35.3125
    scale: 1
  - id: 120
    x: 135
    y: 14
    width: 32.1875
    height: 27.0625
    xOffset: 0.6874999
    yOffset: 25.0625
    xAdvance: 34.375
    scale: 1
  - id: 121
    x: 122
    y: 402
    width: 30.9375
    height: 37.25
    xOffset: 0
    yOffset: 25.25
    xAdvance: 30.8125
    scale: 1
  - id: 122
    x: 478
    y: 209
    width: 22.9375
    height: 26.125
    xOffset: 2.375
    yOffset: 25.0625
    xAdvance: 27.5
    scale: 1
  - id: 123
    x: 60
    y: 240
    width: 10.375
    height: 40.75
    xOffset: 1.6875
    yOffset: 37.3125
    xAdvance: 14.3125
    scale: 1
  - id: 124
    x: 96
    y: 391
    width: 4.3125
    height: 40.4375
    xOffset: 4.5625
    yOffset: 38.4375
    xAdvance: 13.5625
    scale: 1
  - id: 125
    x: 74
    y: 327
    width: 10.4375
    height: 40.75
    xOffset: 2.25
    yOffset: 37.3125
    xAdvance: 14.375
    scale: 1
  - id: 126
    x: 187
    y: 242
    width: 23.5625
    height: 9.937499
    xOffset: 2.9375
    yOffset: 21.5625
    xAdvance: 29.0625
    scale: 1
  - id: 160
    x: 11
    y: 522
    width: 0
    height: 0
    xOffset: 0
    yOffset: 0
    xAdvance: 15.25
    scale: 1
  - id: 8230
    x: 258
    y: 252
    width: 50.0625
    height: 12.875
    xOffset: 2.6875
    yOffset: 12.75
    xAdvance: 55.3125
    scale: 1
  m_kerningInfo:
    kerningPairs: []
  m_kerningPair:
    m_FirstGlyph: 0
    m_FirstGlyphAdjustments:
      xPlacement: 0
      yPlacement: 0
      xAdvance: 0
      yAdvance: 0
    m_SecondGlyph: 0
    m_SecondGlyphAdjustments:
      xPlacement: 0
      yPlacement: 0
      xAdvance: 0
      yAdvance: 0
    xOffset: 0
  fallbackFontAssets: []
  m_CreationSettings:
    sourceFontFileName:
    sourceFontFileGUID: 55624763dfb5d4d2297134f8f79cf4e8
    pointSizeSamplingMode: 0
    pointSize: 52
    padding: 10
    packingMode: 0
    atlasWidth: 512
    atlasHeight: 512
    characterSetSelectionMode: 0
    characterSequence: 32 - 126, 160, 8203, 8230, 9633
    referencedFontAssetGUID:
    referencedTextAssetGUID:
    fontStyle: 0
    fontStyleModifier: 2
    renderMode: 6
    includeFontFeatures: 0
  fontWeights:
  - regularTypeface: {fileID: 0}
    italicTypeface: {fileID: 0}
  - regularTypeface: {fileID: 0}
    italicTypeface: {fileID: 0}
  - regularTypeface: {fileID: 0}
    italicTypeface: {fileID: 0}
  - regularTypeface: {fileID: 0}
    italicTypeface: {fileID: 0}
  - regularTypeface: {fileID: 0}
    italicTypeface: {fileID: 0}
  - regularTypeface: {fileID: 0}
    italicTypeface: {fileID: 0}
  - regularTypeface: {fileID: 0}
    italicTypeface: {fileID: 0}
  - regularTypeface: {fileID: 0}
    italicTypeface: {fileID: 0}
  - regularTypeface: {fileID: 0}
    italicTypeface: {fileID: 0}
  - regularTypeface: {fileID: 0}
    italicTypeface: {fileID: 0}
  normalStyle: 0
  normalSpacingOffset: 0
  boldStyle: 0.75
  boldSpacing: 7
  italicStyle: 35
  tabSize: 10
