%YAML 1.1
%TAG !u! tag:unity3d.com,2011:
--- !u!114 &11400000
MonoBehaviour:
  m_CorrespondingSourceObject: {fileID: 0}
  m_PrefabInstance: {fileID: 0}
  m_PrefabAsset: {fileID: 0}
  m_GameObject: {fileID: 0}
  m_Enabled: 1
  m_EditorHideFlags: 0
  m_Script: {fileID: -1544527758, guid: f70555f144d8491a825f0804e09c671c, type: 3}
  m_Name: 13.Sound
  m_EditorClassIdentifier:
  m_Locked: 0
  m_Muted: 0
  m_CustomPlayableFullTypename:
  m_AnimClip: {fileID: 0}
  m_Parent: {fileID: 11400000, guid: a7ae79e6a64b0cb4da179e6e4cef5097, type: 2}
  m_Children:
  - {fileID: 11400000, guid: a25924b5356be7e4d88fa51f27eaaa38, type: 2}
  - {fileID: 11400000, guid: cdc07f2c22a26644e99c0714f5a259bc, type: 2}
  m_Clips: []
  m_Version: 2
