%YAML 1.1
%TAG !u! tag:unity3d.com,2011:
--- !u!114 &11400000
MonoBehaviour:
  m_CorrespondingSourceObject: {fileID: 0}
  m_PrefabInstance: {fileID: 0}
  m_PrefabAsset: {fileID: 0}
  m_GameObject: {fileID: 0}
  m_Enabled: 1
  m_EditorHideFlags: 0
  m_Script: {fileID: -1544527758, guid: f70555f144d8491a825f0804e09c671c, type: 3}
  m_Name: 9.Web Design
  m_EditorClassIdentifier:
  m_Locked: 0
  m_Muted: 0
  m_CustomPlayableFullTypename:
  m_AnimClip: {fileID: 0}
  m_Parent: {fileID: 11400000, guid: a7ae79e6a64b0cb4da179e6e4cef5097, type: 2}
  m_Children:
  - {fileID: 11400000, guid: 61d584af0d978e24ea95ea3932ca02d7, type: 2}
  - {fileID: 11400000, guid: 00cfcfcc5ac934f4e83e47a772d35b6a, type: 2}
  - {fileID: 11400000, guid: 0a33f3d7d0b77fd4f98816c0f1330807, type: 2}
  m_Clips: []
  m_Version: 2
