%YAML 1.1
%TAG !u! tag:unity3d.com,2011:
--- !u!114 &11400000
MonoBehaviour:
  m_CorrespondingSourceObject: {fileID: 0}
  m_PrefabInstance: {fileID: 0}
  m_PrefabAsset: {fileID: 0}
  m_GameObject: {fileID: 0}
  m_Enabled: 1
  m_EditorHideFlags: 0
  m_Script: {fileID: 2024714994, guid: f70555f144d8491a825f0804e09c671c, type: 3}
  m_Name: AnimationPlayableAsset of Recorded (17)
  m_EditorClassIdentifier:
  m_Clip: {fileID: 7400000, guid: 7b4795a92e37cfd4182b3db3ec7e1ca0, type: 2}
  m_Position: {x: 0, y: 0, z: 0}
  m_EulerAngles: {x: 0, y: 0, z: 0}
  m_UseTrackMatchFields: 0
  m_MatchTargetFields: 63
  m_RemoveStartOffset: 0
  m_ApplyFootIK: 1
  m_Version: 1
  m_Rotation: {x: 0, y: 0, z: 0, w: 1}
