%YAML 1.1
%TAG !u! tag:unity3d.com,2011:
--- !u!687078895 &687078895
SpriteAtlas:
  m_ObjectHideFlags: 0
  m_CorrespondingSourceObject: {fileID: 0}
  m_PrefabInstance: {fileID: 0}
  m_PrefabAsset: {fileID: 0}
  m_Name: 0_SpriteAtlas_6
  m_EditorData:
    serializedVersion: 2
    textureSettings:
      serializedVersion: 2
      anisoLevel: 1
      compressionQuality: 50
      maxTextureSize: 2048
      textureCompression: 0
      filterMode: 1
      generateMipMaps: 0
      readable: 0
      crunchedCompression: 0
      sRGB: 1
    platformSettings: []
    packingSettings:
      serializedVersion: 2
      padding: 2
      blockOffset: 1
      allowAlphaSplitting: 0
      enableRotation: 1
      enableTightPacking: 1
    variantMultiplier: 1
    packables:
    - {fileID: 21300000, guid: e84da4f472310e64bb2be47eff9f00ef, type: 3}
    - {fileID: 21300002, guid: e84da4f472310e64bb2be47eff9f00ef, type: 3}
    - {fileID: 21300004, guid: e84da4f472310e64bb2be47eff9f00ef, type: 3}
    - {fileID: 21300006, guid: e84da4f472310e64bb2be47eff9f00ef, type: 3}
    - {fileID: 21300008, guid: e84da4f472310e64bb2be47eff9f00ef, type: 3}
    - {fileID: 21300010, guid: e84da4f472310e64bb2be47eff9f00ef, type: 3}
    - {fileID: 21300012, guid: e84da4f472310e64bb2be47eff9f00ef, type: 3}
    - {fileID: 21300014, guid: e84da4f472310e64bb2be47eff9f00ef, type: 3}
    - {fileID: 21300016, guid: e84da4f472310e64bb2be47eff9f00ef, type: 3}
    - {fileID: 21300018, guid: e84da4f472310e64bb2be47eff9f00ef, type: 3}
    - {fileID: 21300020, guid: e84da4f472310e64bb2be47eff9f00ef, type: 3}
    - {fileID: 21300022, guid: e84da4f472310e64bb2be47eff9f00ef, type: 3}
    - {fileID: 21300024, guid: e84da4f472310e64bb2be47eff9f00ef, type: 3}
    - {fileID: 21300026, guid: e84da4f472310e64bb2be47eff9f00ef, type: 3}
    - {fileID: 21300028, guid: e84da4f472310e64bb2be47eff9f00ef, type: 3}
    - {fileID: 21300030, guid: e84da4f472310e64bb2be47eff9f00ef, type: 3}
    - {fileID: 21300032, guid: e84da4f472310e64bb2be47eff9f00ef, type: 3}
    - {fileID: 21300034, guid: e84da4f472310e64bb2be47eff9f00ef, type: 3}
    - {fileID: 21300036, guid: e84da4f472310e64bb2be47eff9f00ef, type: 3}
    - {fileID: 21300038, guid: e84da4f472310e64bb2be47eff9f00ef, type: 3}
    - {fileID: 21300040, guid: e84da4f472310e64bb2be47eff9f00ef, type: 3}
    - {fileID: 21300042, guid: e84da4f472310e64bb2be47eff9f00ef, type: 3}
    - {fileID: 21300044, guid: e84da4f472310e64bb2be47eff9f00ef, type: 3}
    - {fileID: 21300046, guid: e84da4f472310e64bb2be47eff9f00ef, type: 3}
    - {fileID: 21300048, guid: e84da4f472310e64bb2be47eff9f00ef, type: 3}
    - {fileID: 21300050, guid: e84da4f472310e64bb2be47eff9f00ef, type: 3}
    - {fileID: 21300052, guid: e84da4f472310e64bb2be47eff9f00ef, type: 3}
    - {fileID: 21300054, guid: e84da4f472310e64bb2be47eff9f00ef, type: 3}
    - {fileID: 21300056, guid: e84da4f472310e64bb2be47eff9f00ef, type: 3}
    - {fileID: 21300058, guid: e84da4f472310e64bb2be47eff9f00ef, type: 3}
    - {fileID: 21300060, guid: e84da4f472310e64bb2be47eff9f00ef, type: 3}
    totalSpriteSurfaceArea: 0
    bindAsDefault: 1
    isAtlasV2: 0
    cachedData: {fileID: 0}
  m_MasterAtlas: {fileID: 0}
  m_PackedSprites:
  - {fileID: 21300000, guid: e84da4f472310e64bb2be47eff9f00ef, type: 3}
  - {fileID: 21300002, guid: e84da4f472310e64bb2be47eff9f00ef, type: 3}
  - {fileID: 21300004, guid: e84da4f472310e64bb2be47eff9f00ef, type: 3}
  - {fileID: 21300006, guid: e84da4f472310e64bb2be47eff9f00ef, type: 3}
  - {fileID: 21300008, guid: e84da4f472310e64bb2be47eff9f00ef, type: 3}
  - {fileID: 21300010, guid: e84da4f472310e64bb2be47eff9f00ef, type: 3}
  - {fileID: 21300012, guid: e84da4f472310e64bb2be47eff9f00ef, type: 3}
  - {fileID: 21300014, guid: e84da4f472310e64bb2be47eff9f00ef, type: 3}
  - {fileID: 21300016, guid: e84da4f472310e64bb2be47eff9f00ef, type: 3}
  - {fileID: 21300018, guid: e84da4f472310e64bb2be47eff9f00ef, type: 3}
  - {fileID: 21300020, guid: e84da4f472310e64bb2be47eff9f00ef, type: 3}
  - {fileID: 21300022, guid: e84da4f472310e64bb2be47eff9f00ef, type: 3}
  - {fileID: 21300024, guid: e84da4f472310e64bb2be47eff9f00ef, type: 3}
  - {fileID: 21300026, guid: e84da4f472310e64bb2be47eff9f00ef, type: 3}
  - {fileID: 21300028, guid: e84da4f472310e64bb2be47eff9f00ef, type: 3}
  - {fileID: 21300030, guid: e84da4f472310e64bb2be47eff9f00ef, type: 3}
  - {fileID: 21300032, guid: e84da4f472310e64bb2be47eff9f00ef, type: 3}
  - {fileID: 21300034, guid: e84da4f472310e64bb2be47eff9f00ef, type: 3}
  - {fileID: 21300036, guid: e84da4f472310e64bb2be47eff9f00ef, type: 3}
  - {fileID: 21300038, guid: e84da4f472310e64bb2be47eff9f00ef, type: 3}
  - {fileID: 21300040, guid: e84da4f472310e64bb2be47eff9f00ef, type: 3}
  - {fileID: 21300042, guid: e84da4f472310e64bb2be47eff9f00ef, type: 3}
  - {fileID: 21300044, guid: e84da4f472310e64bb2be47eff9f00ef, type: 3}
  - {fileID: 21300046, guid: e84da4f472310e64bb2be47eff9f00ef, type: 3}
  - {fileID: 21300048, guid: e84da4f472310e64bb2be47eff9f00ef, type: 3}
  - {fileID: 21300050, guid: e84da4f472310e64bb2be47eff9f00ef, type: 3}
  - {fileID: 21300052, guid: e84da4f472310e64bb2be47eff9f00ef, type: 3}
  - {fileID: 21300054, guid: e84da4f472310e64bb2be47eff9f00ef, type: 3}
  - {fileID: 21300056, guid: e84da4f472310e64bb2be47eff9f00ef, type: 3}
  - {fileID: 21300058, guid: e84da4f472310e64bb2be47eff9f00ef, type: 3}
  - {fileID: 21300060, guid: e84da4f472310e64bb2be47eff9f00ef, type: 3}
  m_PackedSpriteNamesToIndex:
  - "\u30A8\u30B94"
  - "\u8AAD\u66F8\u4E2D_\u9752"
  - "\u521D\u8AAD_\u8AAD\u3081\u308B"
  - "\u3057\u304A\u308A\uFF12"
  - "\u3057\u304A\u308A\uFF11"
  - "\u30A8\u30B3\u3099\u738B5"
  - 4
  - "\u8AAD\u66F8\u4E2D\u3081\u304F\u308A\uFF11"
  - "\u30E9\u30F3\u30AF\u30A2\u30C3\u30D5\u309A\u30CF\u3099\u30CA\u30FC"
  - "\u3075\u304D\u305F\u3099\u3057\u53CD\u5C04\u7528"
  - "\u30A8\u30B91"
  - "\u521D\u8AAD_\u8AAD\u3081\u308B_\u30AA\u30FC\u30E9"
  - "\u30A8\u30B3\u3099\u738B\u3075\u304D\u305F\u3099\u3057_\u7537"
  - "\u521D\u8AAD_\u8AAD\u3081\u306A\u3044"
  - "\u30A8\u30B3\u3099\u738B1"
  - 3
  - "\u30A8\u30B3\u3099\u738B3"
  - 5
  - 1
  - "\u30A8\u30B3\u3099\u738B4"
  - "\u8AAD\u7834_\u9ED2"
  - "\u30A8\u30B3\u3099\u738B2"
  - "\u8AAD\u66F8\u4E2D_\u9ED2"
  - "\u30A8\u30B3\u3099\u738B\u3075\u304D\u305F\u3099\u3057_\u5973"
  - "\u8AAD\u66F8\u4E2D\u3081\u304F\u308A\uFF12"
  - "\u3057\u304A\u308A\uFF13"
  - "\u30E9\u30D8\u3099\u30EB"
  - "\u3057\u304A\u308A\uFF14"
  - "\u30A8\u30B93"
  - 2
  - "\u30A8\u30B92"
  m_Tag: 0_SpriteAtlas_6
  m_IsVariant: 0
