%YAML 1.1
%TAG !u! tag:unity3d.com,2011:
--- !u!687078895 &687078895
SpriteAtlas:
  m_ObjectHideFlags: 0
  m_CorrespondingSourceObject: {fileID: 0}
  m_PrefabInstance: {fileID: 0}
  m_PrefabAsset: {fileID: 0}
  m_Name: 0_SpriteAtlas_7
  m_EditorData:
    serializedVersion: 2
    textureSettings:
      serializedVersion: 2
      anisoLevel: 1
      compressionQuality: 50
      maxTextureSize: 2048
      textureCompression: 0
      filterMode: 1
      generateMipMaps: 0
      readable: 0
      crunchedCompression: 0
      sRGB: 1
    platformSettings: []
    packingSettings:
      serializedVersion: 2
      padding: 2
      blockOffset: 1
      allowAlphaSplitting: 0
      enableRotation: 1
      enableTightPacking: 1
    variantMultiplier: 1
    packables:
    - {fileID: 21300000, guid: a26cbfed03b618745a16db61fbda9cca, type: 3}
    - {fileID: 21300002, guid: a26cbfed03b618745a16db61fbda9cca, type: 3}
    - {fileID: 21300004, guid: a26cbfed03b618745a16db61fbda9cca, type: 3}
    - {fileID: 21300006, guid: a26cbfed03b618745a16db61fbda9cca, type: 3}
    - {fileID: 21300008, guid: a26cbfed03b618745a16db61fbda9cca, type: 3}
    - {fileID: 21300010, guid: a26cbfed03b618745a16db61fbda9cca, type: 3}
    - {fileID: 21300012, guid: a26cbfed03b618745a16db61fbda9cca, type: 3}
    - {fileID: 21300014, guid: a26cbfed03b618745a16db61fbda9cca, type: 3}
    - {fileID: 21300016, guid: a26cbfed03b618745a16db61fbda9cca, type: 3}
    - {fileID: 21300018, guid: a26cbfed03b618745a16db61fbda9cca, type: 3}
    - {fileID: 21300020, guid: a26cbfed03b618745a16db61fbda9cca, type: 3}
    totalSpriteSurfaceArea: 0
    bindAsDefault: 1
    isAtlasV2: 0
    cachedData: {fileID: 0}
  m_MasterAtlas: {fileID: 0}
  m_PackedSprites:
  - {fileID: 21300000, guid: a26cbfed03b618745a16db61fbda9cca, type: 3}
  - {fileID: 21300002, guid: a26cbfed03b618745a16db61fbda9cca, type: 3}
  - {fileID: 21300004, guid: a26cbfed03b618745a16db61fbda9cca, type: 3}
  - {fileID: 21300006, guid: a26cbfed03b618745a16db61fbda9cca, type: 3}
  - {fileID: 21300008, guid: a26cbfed03b618745a16db61fbda9cca, type: 3}
  - {fileID: 21300010, guid: a26cbfed03b618745a16db61fbda9cca, type: 3}
  - {fileID: 21300012, guid: a26cbfed03b618745a16db61fbda9cca, type: 3}
  - {fileID: 21300014, guid: a26cbfed03b618745a16db61fbda9cca, type: 3}
  - {fileID: 21300016, guid: a26cbfed03b618745a16db61fbda9cca, type: 3}
  - {fileID: 21300018, guid: a26cbfed03b618745a16db61fbda9cca, type: 3}
  - {fileID: 21300020, guid: a26cbfed03b618745a16db61fbda9cca, type: 3}
  m_PackedSpriteNamesToIndex:
  - "\u306F\u309A\u305F\u306F\u309A\u305F\u52D5\u753B\u8776\uFF13"
  - "\u306F\u309A\u305F\u306F\u309A\u305F\u52D5\u753B\u8776\uFF11"
  - "\u306F\u309A\u305F\u306F\u309A\u305F\u52D5\u753B\u8776\uFF14"
  - "\u52D5\u753B\u8776s\uFF15"
  - "\u52D5\u753B\u8776s\uFF14"
  - "\u52D5\u753B\u8776s\uFF13"
  - "\u306F\u309A\u305F\u306F\u309A\u305F\u52D5\u753B\u8776\uFF12"
  - "\u52D5\u753B\u8776s\uFF11"
  - "\u52D5\u753B\u8776s\uFF16"
  - "\u52D5\u753B\u8776s\uFF17"
  - "\u52D5\u753B\u8776s\uFF12"
  m_Tag: 0_SpriteAtlas_7
  m_IsVariant: 0
